Name,BodyweightKg,WeightClassKg,Squat1Kg,Squat2Kg,Squat3Kg,Best3SquatKg,Bench1Kg,Bench2Kg,Bench3Kg,Best3BenchKg,Deadlift1Kg,Deadlift2Kg,Deadlift3Kg,Best3DeadliftKg,TotalKg,Event,Equipment,Sex,Division,Place
Harold Escobedo,51.7,52,165,177.5,-182.5,177.5,132.5,145,-147.5,145,160,177.5,185,185,507.5,SBD,Single-ply,M,Open,1
Larry Stoudt,51,52,117.5,130,140,140,80,87.5,-92.5,87.5,172.5,182.5,197.5,197.5,425,SBD,Single-ply,M,Open,2
Mansoor Ijaz,52,52,130,142.5,150,150,75,80,82.5,82.5,157.5,170,-180,170,402.5,SBD,Single-ply,M,Open,3
Marc Morshige,56,56,-165,165,-180,165,107.5,115,-117.5,115,200,205,212.5,212.5,492.5,SBD,Single-ply,M,Open,1
David DeHart,55.8,56,160,-170,-172.5,160,110,117.5,-120,117.5,190,202.5,207.5,207.5,485,SBD,Single-ply,M,Open,2
Steve Snyder #1,55.3,56,165,-172.5,-172.5,165,95,100,-105,100,-187.5,187.5,-200,187.5,452.5,SBD,Single-ply,M,Open,3
Ken Trujillo,60,60,197.5,210,215,215,100,-107.5,-107.5,100,222.5,232.5,-237.5,232.5,547.5,SBD,Single-ply,M,Open,1
Charles Lawson,59.3,60,-200,200,-215,200,-100,100,-107.5,100,215,-247.5,-247.5,215,515,SBD,Single-ply,M,Open,2
J. Penic,60,60,170,182.5,-190,182.5,115,-122.5,122.5,122.5,187.5,200,-207.5,200,505,SBD,Single-ply,M,Open,3
Jerry Sylvia,59.4,60,165,177.5,-185,177.5,100,107.5,110,110,205,-220,-220,205,492.5,SBD,Single-ply,M,Open,4
Bill Swigart,60,60,-167.5,177.5,-187.5,177.5,-110,110,117.5,117.5,192.5,-200,-200,192.5,487.5,SBD,Single-ply,M,Open,5
Dave Edmonson,59.9,60,-195,-195,-195,,,,,,,,,,,SBD,Single-ply,M,Open,DQ
Ausby Alexander,59.8,60,175,,,175,,,,,,,,,,SBD,Single-ply,M,Open,DQ
Bill Cavalier,67.5,67.5,227.5,-237.5,-237.5,227.5,120,130,-132.5,130,275,287.5,-302.5,287.5,645,SBD,Single-ply,M,Open,1
Anthony Crooks,67.3,67.5,-230,-230,232.5,232.5,140,150,-155,150,232.5,247.5,-260,247.5,630,SBD,Single-ply,M,Open,2
Kent Goude,67.3,67.5,215,230,-242.5,230,137.5,145,-150,145,252.5,-267.5,-267.5,252.5,627.5,SBD,Single-ply,M,Open,3
Mark Winquist,67.5,67.5,230,245,-252.5,245,137.5,145,-150,145,225,237.5,-287.5,237.5,627.5,SBD,Single-ply,M,Open,4
Israel Mendoza,67.4,67.5,212.5,227.5,-232.5,227.5,155,-165,-167.5,155,222.5,237.5,-245,237.5,620,SBD,Single-ply,M,Open,5
B. Wright,67.4,67.5,205,-217.5,222.5,222.5,110,117.5,120,120,245,-262.5,262.5,262.5,605,SBD,Single-ply,M,Open,6
Rich Tsutsui,67.2,67.5,210,-222.5,-225,210,175,-182.5,-182.5,175,210,-217.5,-217.5,210,595,SBD,Single-ply,M,Open,7
Mike Wonyetye,67.3,67.5,202.5,217.5,-227.5,217.5,120,-132.5,-132.5,120,227.5,250,-262.5,250,587.5,SBD,Single-ply,M,Open,8
S. Louie,66.7,67.5,-205,-212.5,-212.5,,,,,,,,,,,SBD,Single-ply,M,Open,DQ
Mike Roy,74.6,75,-292.5,292.5,-302.5,292.5,165,175,-177.5,175,252.5,262.5,270,270,737.5,SBD,Single-ply,M,Open,1
Roger Sandvold,75,75,-265,265,,265,170,172.5,-182.5,172.5,270,280,-297.5,280,717.5,SBD,Single-ply,M,Open,2
J. Leeber,73.3,75,250,-265,-265,250,160,167.5,-170,167.5,245,257.5,-260,257.5,675,SBD,Single-ply,M,Open,3
Pat Cargni,72.2,75,250,-260,262.5,262.5,150,-157.5,157.5,157.5,250,-262.5,,250,670,SBD,Single-ply,M,Open,4
Armington Rafael,73.8,75,207.5,232.5,-240,232.5,177.5,-190,190,190,215,235,245,245,667.5,SBD,Single-ply,M,Open,5
Ray Neeley,73.9,75,227.5,242.5,250,250,162.5,-172.5,-172.5,162.5,250,-267.5,,250,662.5,SBD,Single-ply,M,Open,6
Ray Penna,74.5,75,-277.5,280,-295,280,165,-172.5,-172.5,165,-272.5,-272.5,-272.5,,,SBD,Single-ply,M,Open,DQ
Dan Gay,74.7,75,270,-282.5,-282.5,270,,,,,,,,,,SBD,Single-ply,M,Open,DQ
Howard Hoffman,74.2,75,-282.5,-282.5,-282.5,,,,,,,,,,,SBD,Single-ply,M,Open,DQ
S. Kogul,74.8,75,-257.5,-257.5,-257.5,,,,,,,,,,,SBD,Single-ply,M,Open,DQ
Pat Pointer,82,82.5,280,-290,297.5,297.5,195,205,207.5,207.5,300,-312.5,312.5,312.5,817.5,SBD,Single-ply,M,Open,1
Kevin McClaverty,81.7,82.5,282.5,-295,-295,282.5,177.5,182.5,-187.5,182.5,305,310,-315,310,775,SBD,Single-ply,M,Open,2
Dolph Pierce,81.4,82.5,272.5,287.5,295,295,167.5,177.5,182.5,182.5,275,292.5,-300,292.5,770,SBD,Single-ply,M,Open,3
Ted Mossbarger,81.9,82.5,292.5,302.5,-307.5,302.5,172.5,-180,-182.5,172.5,295,-307.5,-307.5,295,770,SBD,Single-ply,M,Open,4
Bruce Van Haselen,81.8,82.5,250,262.5,267.5,267.5,195,205,-210,205,272.5,282.5,287.5,287.5,760,SBD,Single-ply,M,Open,5
R. Eiden,82.5,82.5,260,280,292.5,292.5,172.5,187.5,-195,187.5,260,277.5,-282.5,277.5,757.5,SBD,Single-ply,M,Open,6
M. Hayden,82.5,82.5,255,270,-280,270,162.5,175,-180,175,277.5,295,305,305,750,SBD,Single-ply,M,Open,7
Bruce Sullivan,81.8,82.5,265,275,282.5,282.5,172.5,-177.5,,172.5,282.5,292.5,-302.5,292.5,747.5,SBD,Single-ply,M,Open,8
Jim Lem,81.3,82.5,275,290,-302.5,290,160,167.5,-172.5,167.5,260,275,-290,275,732.5,SBD,Single-ply,M,Open,9
M. Baird,81.9,82.5,255,267.5,-275,267.5,152.5,160,-165,160,287.5,-305,-305,287.5,715,SBD,Single-ply,M,Open,10
Danny Bullard,82.1,82.5,262.5,-272.5,-272.5,262.5,-200,200,-212.5,200,252.5,-265,-265,252.5,715,SBD,Single-ply,M,Open,11
C. Johnson,81.7,82.5,255,-265,,255,170,177.5,-182.5,177.5,265,272.5,-277.5,272.5,705,SBD,Single-ply,M,Open,12
J. Issacson,81.5,82.5,250,260,-267.5,260,150,157.5,165,165,250,267.5,277.5,277.5,702.5,SBD,Single-ply,M,Open,13
L. Havelka,82.1,82.5,257.5,-272.5,-272.5,257.5,162.5,-170,170,170,255,-265,-265,255,682.5,SBD,Single-ply,M,Open,14
Ken Horewitch,82.2,82.5,257.5,-272.5,272.5,272.5,160,-170,-170,160,250,-267.5,-272.5,250,682.5,SBD,Single-ply,M,Open,15
J. Anderson,82.1,82.5,-250,260,-272.5,260,137.5,147.5,155,155,265,-285,-285,265,680,SBD,Single-ply,M,Open,16
David Morlan,81.7,82.5,240,-255,-255,240,162.5,-167.5,167.5,167.5,260,267.5,-275,267.5,675,SBD,Single-ply,M,Open,17
Dave Eller,81.9,82.5,277.5,292.5,-300,292.5,-167.5,-167.5,-167.5,,,,,,,SBD,Single-ply,M,Open,DQ
A. Goldberg,81.8,82.5,260,-277.5,-277.5,260,,,,,,,,,,SBD,Single-ply,M,Open,DQ
Larry Mistric,81.6,82.5,280,-292.5,-292.5,280,165,172.5,-177.5,172.5,-290,-307.5,-307.5,,,SBD,Single-ply,M,Open,DQ
Dave Hazelwood,,82.5,,,,,,,,,,,,,,SBD,Single-ply,M,Open,NS
Todd Rachwal,,82.5,,,,,,,,,,,,,,SBD,Single-ply,M,Open,NS
Joe Walden,81.8,82.5,-295,-295,-295,,,,,,,,,,,SBD,Single-ply,M,Open,DQ
Rich Woods #1,88.2,90,305,317.5,-322.5,317.5,202.5,-212.5,-212.5,202.5,307.5,315,-325,315,835,SBD,Single-ply,M,Open,1
Marc Caplan,85.9,90,-315,315,327.5,327.5,182.5,190,-195,190,310,-317.5,-320,310,827.5,SBD,Single-ply,M,Open,2
Kent Bush,88.3,90,282.5,305,-317.5,305,177.5,-190,-190,177.5,317.5,327.5,-347.5,327.5,810,SBD,Single-ply,M,Open,3
Francis Silva,89.4,90,292.5,300,-312.5,300,217.5,230,-235,230,255,275,-277.5,275,805,SBD,Single-ply,M,Open,4
Mike Riedel,89.5,90,290,-310,-310,290,170,182.5,-192.5,182.5,272.5,302.5,315,315,787.5,SBD,Single-ply,M,Open,5
R. Parker,89.2,90,307.5,330,-342.5,330,165,177.5,-182.5,177.5,260,275,-287.5,275,782.5,SBD,Single-ply,M,Open,6
Jack Cribbin,89.2,90,275,-295,-295,275,160,172.5,175,175,307.5,-337.5,,307.5,757.5,SBD,Single-ply,M,Open,7
C. Jones,88.8,90,277.5,-295,-295,277.5,170,177.5,-182.5,177.5,-285,295,-312.5,295,750,SBD,Single-ply,M,Open,8
Robert Beamesderfer,88.7,90,-265,-272.5,272.5,272.5,185,-190,-190,185,260,272.5,-280,272.5,730,SBD,Single-ply,M,Open,9
Dan Helgenberger,89.3,90,272.5,-287.5,-287.5,272.5,167.5,-177.5,-177.5,167.5,285,-300,-300,285,725,SBD,Single-ply,M,Open,10
B. Coury,89.3,90,257.5,-267.5,267.5,267.5,160,167.5,172.5,172.5,260,275,282.5,282.5,722.5,SBD,Single-ply,M,Open,11
Parry Markle,87.3,90,-260,-260,260,260,-182.5,182.5,-190,182.5,260,-272.5,-272.5,260,702.5,SBD,Single-ply,M,Open,12
John Black,89.1,90,312.5,-327.5,-327.5,312.5,,,,,,,,,,SBD,Single-ply,M,Open,DQ
Doug Borden,89.5,90,-312.5,-312.5,-312.5,,,,,,,,,,,SBD,Single-ply,M,Open,DQ
Lev Brosius,88.8,90,-287.5,-287.5,-287.5,,,,,,,,,,,SBD,Single-ply,M,Open,DQ
Gabe Stivers,89.1,90,-305,-305,-317.5,,,,,,,,,,,SBD,Single-ply,M,Open,DQ
Kevin Fisher,100,100,307.5,320,332.5,332.5,187.5,195,,195,325,345,-352.5,345,872.5,SBD,Single-ply,M,Open,1
Steve Foster,99.1,100,300,317.5,327.5,327.5,167.5,227.5,-235,227.5,285,307.5,-315,307.5,862.5,SBD,Single-ply,M,Open,2
Ted Hamner,97.6,100,312.5,322.5,-327.5,322.5,-205,-205,205,205,300,317.5,-322.5,317.5,845,SBD,Single-ply,M,Open,3
John Florio,99.5,100,327.5,-340,-340,327.5,190,-200,-200,190,307.5,325,-335,325,842.5,SBD,Single-ply,M,Open,4
B. Boland,99.3,100,300,312.5,322.5,322.5,192.5,-197.5,-197.5,192.5,300,312.5,322.5,322.5,837.5,SBD,Single-ply,M,Open,5
Gerald Gnerre,99.4,100,307.5,-320,-320,307.5,205,212.5,-215,212.5,302.5,310,317.5,317.5,837.5,SBD,Single-ply,M,Open,6
Paul Whitney,98.3,100,315,-327.5,-332.5,315,202.5,212.5,-220,212.5,305,-317.5,-320,305,832.5,SBD,Single-ply,M,Open,7
Kit Carson,100,100,317.5,-335,-335,317.5,192.5,200,-205,200,285,307.5,-315,307.5,825,SBD,Single-ply,M,Open,9
Charlie Perkins,98.8,100,300,-320,-327.5,300,197.5,205,-212.5,205,305,320,-327.5,320,825,SBD,Single-ply,M,Open,8
Dave Bost,99.8,100,317.5,-332.5,-335,317.5,192.5,200,-205,200,280,292.5,-300,292.5,810,SBD,Single-ply,M,Open,10
Jeff Hjorth,98.8,100,295,-305,-307.5,295,192.5,200,-202.5,200,312.5,-325,-325,312.5,807.5,SBD,Single-ply,M,Open,11
Bob Norman,99.4,100,322.5,-337.5,-337.5,322.5,212.5,-222.5,222.5,222.5,-252.5,252.5,-272.5,252.5,797.5,SBD,Single-ply,M,Open,12
M. Metchikian,100,100,327.5,-347.5,-347.5,327.5,192.5,-197.5,,192.5,272.5,-287.5,-287.5,272.5,792.5,SBD,Single-ply,M,Open,13
M. Morris,99,100,282.5,302.5,310,310,172.5,180,,180,300,-320,,300,790,SBD,Single-ply,M,Open,14
Jim Mize,97.4,100,282.5,300,-315,300,197.5,207.5,215,215,272.5,-285,-287.5,272.5,787.5,SBD,Single-ply,M,Open,15
David Sewell,98.3,100,272.5,-292.5,-292.5,272.5,190,202.5,205,205,302.5,-332.5,-332.5,302.5,780,SBD,Single-ply,M,Open,16
D. Marshall,97.6,100,277.5,-287.5,-287.5,277.5,15,170,180,180,292.5,-305,-310,292.5,750,SBD,Single-ply,M,Open,17
W. Bloom,98.7,100,-300,-300,-300,,,,,,,,,,,SBD,Single-ply,M,Open,DQ
Pat Brown,99.1,100,-307.5,-317.5,-327.5,,,,,,,,,,,SBD,Single-ply,M,Open,DQ
Dino Darbenzio,99.4,100,322.5,350,-362.5,350,205,212.5,-217.5,212.5,-320,-320,-320,,,SBD,Single-ply,M,Open,DQ
William Keppler,99.2,100,320,-332.5,332.5,332.5,137.5,-150,-150,137.5,-327.5,-327.5,-327.5,,,SBD,Single-ply,M,Open,DQ
Bob Kincaid,99.4,100,-275,-275,-275,,,,,,,,,,,SBD,Single-ply,M,Open,DQ
J. Moffat,99.2,100,-275,-280,-280,,,,,,,,,,,SBD,Single-ply,M,Open,DQ
Fred Hatfield,103.8,110,375,-395,-395,375,205,215,220,220,325,337.5,-347.5,337.5,932.5,SBD,Single-ply,M,Open,1
Bennett Clayton,109.4,110,345,-367.5,-367.5,345,197.5,205,-210,205,335,345,,345,895,SBD,Single-ply,M,Open,2
Joe Free,108.8,110,-300,300,317.5,317.5,215,220,-225,220,312.5,327.5,332.5,332.5,870,SBD,Single-ply,M,Open,3
Jeff Lawson,109,110,332.5,350,-357.5,350,192.5,200,-205,200,320,-340,-342.5,320,870,SBD,Single-ply,M,Open,4
J. Svitak,108.9,110,327.5,342.5,-350,342.5,-220,220,-227.5,220,305,-315,-315,305,867.5,SBD,Single-ply,M,Open,5
Jeff Magruder,107.3,110,282.5,302.5,-320,302.5,250,262.5,-270,262.5,282.5,297.5,-305,297.5,862.5,SBD,Single-ply,M,Open,6
James Hawkins,107.7,110,320,342.5,-350,342.5,190,-202.5,-202.5,190,320,-337.5,-337.5,320,852.5,SBD,Single-ply,M,Open,7
Bob Carlson,107.3,110,302.5,322.5,-327.5,322.5,187.5,197.5,-202.5,197.5,325,-347.5,-347.5,325,845,SBD,Single-ply,M,Open,8
J. Green,108.2,110,305,315,322.5,322.5,175,182.5,187.5,187.5,300,315,322.5,322.5,832.5,SBD,Single-ply,M,Open,9
Sam Samaniego,108,110,-300,300,317.5,317.5,227.5,-250,-250,227.5,282.5,-300,-300,282.5,827.5,SBD,Single-ply,M,Open,10
Tom Kunkel,104.6,110,295,307.5,-315,307.5,162.5,172.5,177.5,177.5,315,337.5,-345,337.5,822.5,SBD,Single-ply,M,Open,11
Marion Dent,109.5,110,305,315,-322.5,315,-185,185,-192.5,185,300,315,-322.5,315,815,SBD,Single-ply,M,Open,12
T. Thompson,109.4,110,302.5,-317.5,-322.5,302.5,212.5,-222.5,-222.5,212.5,292.5,-310,-320,292.5,807.5,SBD,Single-ply,M,Open,13
H. Hitchcock,105,110,-297.5,297.5,320,320,-187.5,187.5,-190,187.5,297.5,-320,-320,297.5,805,SBD,Single-ply,M,Open,14
R. Molden,108.8,110,310,325,-332.5,325,-185,185,-192.5,185,275,295,-300,295,805,SBD,Single-ply,M,Open,16
John Schaeffer,108,110,-277.5,277.5,290,290,-220,-220,220,220,277.5,295,-320,295,805,SBD,Single-ply,M,Open,15
Bill Fox,107.8,110,290,-305,305,305,205,-217.5,220,220,277.5,-292.5,-292.5,277.5,802.5,SBD,Single-ply,M,Open,17
John Mutz,106.4,110,290,-307.5,-312.5,290,177.5,-185,-187.5,177.5,315,-340,-345,315,782.5,SBD,Single-ply,M,Open,18
R. Lambert,107.8,110,282.5,-302.5,-310,282.5,162.5,175,-177.5,175,317.5,-350,,317.5,775,SBD,Single-ply,M,Open,19
Willie Morris,109.5,110,-282.5,-282.5,282.5,282.5,182.5,192.5,-200,192.5,272.5,285,-292.5,285,760,SBD,Single-ply,M,Open,20
K. Highberger,109.2,110,282.5,295,-305,295,170,177.5,-182.5,177.5,275,285,-295,285,757.5,SBD,Single-ply,M,Open,21
Ken DeLong,,110,,,,,,,,,,,,,,SBD,Single-ply,M,Open,NS
Lee Jacobs,108.7,110,-310,-310,-310,,,,,,,,,,,SBD,Single-ply,M,Open,DQ
Dick Morton,108.4,110,305,-317.5,-320,305,217.5,225,,225,,,,,,SBD,Single-ply,M,Open,DQ
Dave Colangelo,107.2,110,330,-352.5,,330,205,-215,-215,205,,,,,,SBD,Single-ply,M,Open,DQ
Jim Drapal,122.4,125,337.5,-357.5,357.5,357.5,220,-232.5,-232.5,220,335,357.5,-362.5,357.5,935,SBD,Single-ply,M,Open,1
Lee Moran #1,116.2,125,352.5,-367.5,375,375,250,260,-272.5,260,297.5,-307.5,-307.5,297.5,932.5,SBD,Single-ply,M,Open,2
Dave Parks,122.6,125,335,347.5,355,355,200,-205,-205,200,350,360,-372.5,360,915,SBD,Single-ply,M,Open,3
John Houser,124.2,125,335,-350,-352.5,335,190,200,-205,200,332.5,345,352.5,352.5,887.5,SBD,Single-ply,M,Open,4
Dennis Arnold #2,120.6,125,307.5,-322.5,327.5,327.5,227.5,237.5,-242.5,237.5,307.5,320,-327.5,320,885,SBD,Single-ply,M,Open,5
T. Habback,120,125,-327.5,337.5,-352.5,337.5,205,-220,-220,205,325,-345,-345,325,867.5,SBD,Single-ply,M,Open,6
John Hjorth,124.5,125,315,-325,-332.5,315,215,222.5,-227.5,222.5,317.5,-332.5,-332.5,317.5,855,SBD,Single-ply,M,Open,7
BW Dunn,118,125,315,-325,,315,-215,-215,215,215,315,-325,,315,845,SBD,Single-ply,M,Open,8
John Gentile,120.4,125,317.5,-335,-335,317.5,195,-205,205,205,317.5,-327.5,,317.5,840,SBD,Single-ply,M,Open,9
W. Robinson,118.1,125,-300,300,317.5,317.5,205,-212.5,-212.5,205,275,300,,300,822.5,SBD,Single-ply,M,Open,10
Dave Atterholt,115.2,125,310,-320,-320,310,-200,-200,-200,,,,,,,SBD,Single-ply,M,Open,DQ
Dwayne Fely,153.2,125+,-365,365,412.5,412.5,237.5,250,255,255,272.5,295,307.5,307.5,975,SBD,Single-ply,M,Open,1
Durwin Piper,190,125+,347.5,372.5,385,385,215,230,237.5,237.5,320,340,-355,340,962.5,SBD,Single-ply,M,Open,2
Randy Raney,127.6,125+,337.5,-352.5,-355,337.5,232.5,240,-242.5,240,340,-352.5,,340,917.5,SBD,Single-ply,M,Open,3
Alex Pregnar,140,125+,345,365,-375,365,205,212.5,215,215,327.5,337.5,,337.5,917.5,SBD,Single-ply,M,Open,4
Roger Davis #1,141.3,125+,352.5,-377.5,-385,352.5,232.5,242.5,-250,242.5,287.5,-310,-310,287.5,882.5,SBD,Single-ply,M,Open,5
Blaise Boscaccy,132,125+,-332.5,-332.5,-332.5,,,,,,,,,,,SBD,Single-ply,M,Open,DQ
Mike Gollehon,139.5,125+,-332.5,-332.5,-332.5,,,,,,,,,,,SBD,Single-ply,M,Open,DQ
Bill Dunn #1,158.4,125+,227.5,272.5,-305,272.5,-262.5,-262.5,,,,,,,,SBD,Single-ply,M,Open,DQ
