Name,BirthDate,Age,Sex,Tested,Division,Equipment,BodyweightKg,WeightClassKg,Squat1Kg,Squat2Kg,Squat3Kg,Best3SquatKg,Bench1Kg,Bench2Kg,Bench3Kg,Best3BenchKg,Deadlift1Kg,Deadlift2Kg,Deadlift3Kg,Best3DeadliftKg,Deadlift4Kg,TotalKg,Event,Place,Country
Mark Lockstone,,50,M,Yes,M_M3_C_ABPU,Wraps,78.9,82.5,110,120,-130,120,75,-80,-80,75,140,150,-165,150,,345,SBD,1,UK
Douglas Lisle,,38,M,Yes,M_O_S_ABPU,Single-ply,79.5,82.5,225,237.5,242.5,242.5,-170,170,180,180,200,207.5,-215,207.5,,630,SBD,1,UK
Sam Picknett,,20,M,Yes,M_J_R_ABPU,Raw,107.6,110,150,160,-170,160,85,-95,-95,85,200,210,215,215,,460,SBD,1,UK
Daniel Bassett,,41,M,,M_M1_R_BPU,Raw,78.6,82.5,125,135,145,145,70,-80,-80,70,205,212.5,-220,212.5,,427.5,SBD,1,UK
Daniel Whittall,,25,M,Yes,M_O_S_ABPU,Single-ply,82.5,82.5,245,-265,265,265,135,145,-152.5,145,210,-222.5,-222.5,210,,620,SBD,2,UK
Daniel Galata,,25,M,Yes,M_O_R_ABPU,Raw,82.5,82.5,180,195,-215,195,100,110,-120,110,190,210,-225,210,,515,SBD,1,UK
Merat Tafreshi,1991-11-06,27,M,,M_O_C_BPU,Wraps,74.3,75,220,-235,235,235,110,120,-130,120,200,220,232.5,232.5,,587.5,SBD,1,UK
Luke McDonald,,38,M,,M_O_C_BPU,Wraps,81.9,82.5,250,-272.5,272.5,272.5,145,-155,-155,145,260,-275,-275,260,,677.5,SBD,1,UK
Lewis King,,23,M,,M_J_C_BPU,Wraps,130.7,140,-315,315,323,323,180,-190,-190,180,270,290.5,-297.5,290.5,,793.5,SBD,1,UK
Ben Flawith,,22,M,Yes,M_J_C_ABPU,Wraps,127.4,140,-280,-280,-280,,,,,,,,,,,,SBD,DQ,UK
Paul Ashton,,56,M,Yes,M_M4_C_ABPU,Wraps,81.6,82.5,165,-175,-175,165,100,-105,105,105,160,-177.5,,160,,430,SBD,1,UK
Charanjit Sund,,34,M,Yes,M_O_R_ABPU,Raw,,,,,,,,,,,,,,,,,SBD,NS,UK
Catherine Kruger,,23,F,Yes,F_J_C_ABPU,Wraps,65,67.5,75,90,100,100,50,55,60,60,90,105,-112.5,105,,265,SBD,1,UK
Aneela Rose,,47,F,Yes,F_M2_C_ABPU,Wraps,55,56,82.5,90,92.5,92.5,47.5,52.5,55,55,100,110,117.5,117.5,,265,SBD,1,UK
Sophie Viner,,25,F,Yes,F_O_R_ABPU,Raw,106.9,90+,85,92.5,100,100,47.5,52.5,-55,52.5,112.5,125,-135,125,,277.5,SBD,2,UK
Lindsay McGuire #2,,34,F,Yes,F_O_C_ABPU,Wraps,58.2,60,80,-90,90,90,45,50,-55,50,120,130,-135,130,,270,SBD,1,UK
Melanie Clifford,,40,F,Yes,F_M1_C_ABPU,Wraps,112.8,90+,95,110,-122.5,110,55,60,-65,60,120,125,137.5,137.5,,307.5,SBD,1,UK
Joanne Gwyther,,32,F,Yes,F_O_R_ABPU,Raw,117.6,90+,102.5,112.5,-120,112.5,52.5,57.5,-62.5,57.5,120,130,-140,130,,300,SBD,1,UK
Zoe Pettitt,,24,F,Yes,F_O_C_ABPU,Wraps,78.1,82.5,-110,110,115,115,65,70,72.5,72.5,120,130,140,140,,327.5,SBD,2,UK
Jessica Pallot,,23,F,Yes,F_J_C_ABPU,Wraps,56,56,100,110,-112.5,110,65,-70.5,-70.5,65,125,135,-140,135,,310,SBD,1,UK
Jessica Pallot,,23,F,Yes,F_O_C_ABPU,Wraps,56,56,100,110,-112.5,110,65,-70.5,-70.5,65,125,135,-140,135,,310,SBD,1,UK
Cleary Clifford,,43,F,Yes,F_M1_C_ABPU,Wraps,81.8,82.5,-105,105,-112.5,105,47.5,50,-52.5,50,130,137.5,-142.5,137.5,,292.5,SBD,1,UK
Amy Pollard,,24,F,Yes,F_O_R_ABPU,Raw,88.2,90,120,130,-140,130,50,55,60,60,130,142.5,155,155,,345,SBD,1,UK
Fran Loughlin,,40,F,Yes,F_M1_R_ABPU,Raw,77.4,82.5,100,107.5,115,115,65,70,75,75,135,142.5,-150,142.5,,332.5,SBD,1,UK
Victoria Russell,,26,F,,F_O_M_BPU,Multi-ply,71.7,75,-135,135,-150,135,72.5,77.5,82.5,82.5,140,-152.5,-152.5,140,,357.5,SBD,1,UK
Eleanor Dodd,,27,F,Yes,F_O_C_ABPU,Wraps,68.4,75,155,165,-170,165,62.5,67.5,-70,67.5,147.5,-157.5,-157.5,147.5,,380,SBD,2,UK
Learna Lee,,33,F,Yes,F_O_C_ABPU,Wraps,82.2,82.5,165,170.5,-180,170.5,85,-90,90,90,150,160,167.5,167.5,,428,SBD,1,UK
Kadie Crichton,1992-11-27,26,F,Yes,F_O_C_ABPU,Wraps,110.7,90+,150,165,175,175,70,75,-77.5,75,155,170,180,180,,430,SBD,1,UK
Gemma Wright,,26,F,Yes,F_O_C_ABPU,Wraps,74.5,75,165.5,-170,170,170,-70,72.5,-75,72.5,160,170,-178,170,,412.5,SBD,1,UK
Bota Cork,,52,F,Yes,F_M3_R_ABPU,Raw,,,,,,,,,,,,,,,,,SBD,NS,UK
Emmy Louise,,35,F,,F_O_R_BPU,Raw,55.3,56,,,,,70,75,-80,75,,,,,,75,B,1,UK
Catherine Croydon,,27,F,,F_O_R_BPU,Raw,80.7,82.5,,,,,132.5,-140,-140,132.5,,,,,,132.5,B,1,UK
Catherine Donnelly,,25,F,,F_O_R_BPU,Raw,96,90+,,,,,110,117.5,-122.5,117.5,,,,,,117.5,B,1,UK
Iain Connor,,41,M,,M_O_M_BPU,Multi-ply,122.1,125,,,,,-335,-335,-335,,,,,,,,B,DQ,UK
Scott Halliday,,41,M,,M_M1_M_BPU,Raw,105.5,110,,,,,205,,,205,,,,,,205,B,1,UK
Michael Delastie,,27,M,,M_O_R_BPU,Raw,107.1,110,,,,,150,165,170,170,,,,,,170,B,1,UK
Aaron Widdows,,30,M,,M_O_R_BPU,Raw,120.1,125,,,,,-200,210,220,220,,,,,,220,B,1,UK
David Morris,,48,M,,M_M2_R_BPU,Raw,164.2,140+,,,,,213,222.5,-235,222.5,,,,,,222.5,B,1,UK
Josh Brown #1,,27,M,,M_O_R_BPU,Raw,147.3,140+,,,,,170,182.5,-195,182.5,,,,,,182.5,B,1,UK
Rich Willis,,49,M,Yes,M_M2_R_ABPU,Raw,51.2,52,,,,,118,-122.5,-122.5,118,,,,,,118,B,1,UK
Kayleigh Morris,,18,F,Yes,F_O_R_ABPU,Raw,87.6,90,,,,,,,,,90,105,-115,105,,105,D,1,UK
Kayleigh Morris,,18,F,Yes,F_T3_R_ABPU,Raw,87.6,90,,,,,,,,,90,105,-115,105,,105,D,1,UK
Gwennan Evans,,21,F,Yes,F_J_R_ABPU,Raw,72.6,75,,,,,,,,,125,130,-140,130,,130,D,1,UK
Ben Flawith,,22,M,Yes,M_J_C_ABPU,Raw,127.4,140,,,,,,,,,280,-300,-300,280,,280,D,1,UK
Catherine Donnelly,,25,F,,F_O_R_BPU,Raw,96,90+,,,,,,,,,180,190,202.5,202.5,,202.5,D,1,UK
Jacob Hoy,,26,M,,M_O_R_BPU,Raw,82,82.5,,,,,,,,,242.5,250,255,255,,255,D,1,UK
Georgina Hodson,,32,F,Yes,F_O_R_ABPU,Raw,54.6,56,,,,,,,,,105,115,-132.5,115,,115,D,1,UK
David Hodson,,34,M,Yes,M_O_R_ABPU,Raw,79.5,82.5,,,,,,,,,180,210,-230,210,,210,D,1,UK
Emmy Louise,,35,F,,F_O_R_BPU,Raw,55.3,56,,,,,,,,,140,-150,-150,140,,140,D,1,UK
Darryl Triance,,42,M,,M_M1_R_BPU,Raw,90,90,,,,,,,,,240,257.5,-267.5,257.5,,257.5,D,1,UK
David Morris,,48,M,,M_M2_R_BPU,Raw,164.2,140+,,,,,,,,,280,-310,310,310,,310,D,1,UK
Chris Mills,,57,M,Yes,M_M4_R_ABPU,Raw,79.6,82.5,,,,,,,,,160,180,192.5,192.5,,192.5,D,G,UK
James Chapman #3,,42,M,,M_M1_S_BPU,Single-ply,90,90,287.5,302.5,315,315,182.5,192.5,200,200,222.5,235,245,245,,760,SBD,1,UK
Andrew Moyler,,57,M,Yes,M_M4_R_ABPU,Raw,98.7,100,-185,200,-207.5,200,127.5,137.5,140,140,230,240,253,253,257.5,593,SBD,1,UK
Jacek Toczydlowski,,37,M,,M_O_C_BPU,Wraps,89.3,90,230,242.5,-252.5,242.5,150,160,-167.5,160,230,245,-260,245,,647.5,SBD,1,UK
Ben Algar,,42,M,Yes,M_M1_C_ABPU,Wraps,118.8,125,225,245,255,255,110,115,117.5,117.5,240,255,-262.5,255,,627.5,SBD,1,UK
Mark Lawford,,45,M,Yes,M_M2_C_ABPU,Wraps,125.5,140,225,240,242.5,242.5,190,-202.5,-202.5,190,240,260,-267.5,260,,692.5,SBD,1,UK
Jordan Gretton-Doidge,,29,M,,M_O_R_BPU,Raw,89,90,165,175,185,185,145,152.5,160,160,250,260,270,270,,615,SBD,2,UK
Luke Nash,,32,M,,M_O_R_BPU,Raw,89.6,90,210,217.5,220,220,145,-150,-152.5,145,245,260,270,270,,635,SBD,1,UK
Johnathan Vince,,26,M,Yes,M_O_C_ABPU,Wraps,91.9,100,225,235,,235,155,160,-165,160,255,265,-270,265,,660,SBD,1,UK
Jon May,,27,M,,M_O_C_BPU,Wraps,97.8,100,242.5,252.5,260,260,162.5,172.5,,172.5,280,-300,-300,280,,712.5,SBD,1,UK
Richard Kemp,,58,M,Yes,M_M4_R_ABPU,Raw,87.9,90,145,155,-167.5,155,85,97.5,-100,97.5,185,,,185,,437.5,SBD,1,UK
Aaron Fillery,,31,M,,M_O_C_BPU,Wraps,89.7,90,205,-215,,205,145,-150,,145,-270,-270,,,,,SBD,DQ,UK
Michael Taylor,,40,M,,M_M1_C_BPU,Wraps,107,110,220,235,-242.5,235,120,130,-135,130,220,260,,260,,625,SBD,1,UK
Luther Nzinga,,27,M,Yes,M_O_C_ABPU,Wraps,89.3,90,227.5,-235,-235,227.5,135,145,-155,145,245,,,245,,617.5,SBD,1,UK
Kenneth Jones,,45,M,,M_M2_R_BPU,Raw,122.9,125,270,290,,290,145,150,155,155,270,290,,290,,735,SBD,1,UK
Daniel Russell,,28,M,Yes,M_O_M_ABPU,Multi-ply,93.4,100,-310,-310,,,,,,,,,,,,,SBD,DQ,UK
Ian White,,32,M,Yes,M_O_C_ABPU,Wraps,105.9,110,170,180,-190,180,75,82.5,-90,82.5,180,200,-222.5,200,,462.5,SBD,2,UK
Darren Hammond,,46,M,,M_O_R_BPU,Raw,108.2,110,210,225,235,235,127.5,135,140,140,270,285,300,300,,675,SBD,1,UK
Darren Hammond,,46,M,,M_M2_R_BPU,Raw,108.2,110,210,225,235,235,127.5,135,140,140,270,285,300,300,,675,SBD,1,UK
Alex Tuddenham,,24,M,Yes,M_O_R_ABPU,Raw,124.2,125,220,230,240,240,140,150,155,155,255,272.5,280,280,,675,SBD,1,UK
Nathan Wysocki,,25,M,Yes,M_O_R_ABPU,Raw,108.4,110,230,240,250,250,135,140,145,145,250,267.5,272.5,272.5,,667.5,SBD,1,UK
Mark Harbert,,26,M,,M_O_C_BPU,Wraps,105.3,110,235,250,262.5,262.5,160,170,-180,170,-260,270,282.5,282.5,,715,SBD,2,UK
Robert Warburton,,35,M,Yes,M_O_C_ABPU,Wraps,109.7,110,240,-265,,240,130,140,-150,140,260,-285,-290,260,,640,SBD,1,UK
Frankie Kemp,,25,M,Yes,M_O_R_ABPU,Raw,135.1,140,-260,260,-272.5,260,170,180,-182.5,180,260,-280,-280,260,,700,SBD,1,UK
Rhys Browning,,29,M,,M_O_C_BPU,Wraps,119.3,125,260,285,300,300,175,182.5,187.5,187.5,320,340,350,350,,837.5,SBD,1,UK
Cameron Couldwell,,27,M,,M_O_C_BPU,Wraps,117.1,125,265,275,285,285,175,-185,-185,175,305,-315,,305,,765,SBD,2,UK
Adam Hindle,,32,M,,M_O_C_BPU,Wraps,164,140+,300,,,300,200,210,,210,320,342.5,-368,342.5,,852.5,SBD,1,UK
Bradley Scott,,30,M,,M_O_C_BPU,Wraps,129.6,140,300,-312.5,-312.5,300,185,-200,-200,185,305,-320,,305,,790,SBD,1,UK
Dan Stewart,,25,M,,M_O_C_BPU,Wraps,109.2,110,380,-422.5,,380,210,220,-230,220,300,-330,-330,300,,900,SBD,1,UK
